{
  "translation": {
    "TEST_MESSAGE": "Это тестовое сообщение",
    "AMOUNT_OF_MESSAGES_0": "У Вас {{count}} сообщение",
    "AMOUNT_OF_MESSAGES_1": "У Вас {{count}} сообщения",
    "AMOUNT_OF_MESSAGES_2": "У Вас {{count}} сообщений"
  }
}
